CUST NO.,XCOORD.,YCOORD.,DEMAND,READY TIME,DUE DATE,SERVICE TIME
1,60,60,0,0,1234,0
2,20,0,20,0,1234,80
3,0,20,20,0,1234,80
4,20,20,20,0,1234,80
5,40,0,20,0,1234,80
6,40,20,20,0,1234,80
7,40,40,20,0,1234,80
8,0,40,20,0,1234,80
9,20,40,20,0,1234,80
10,60,0,20,0,1234,80
11,60,20,20,0,1234,80
12,60,40,20,0,1234,80
13,0,60,20,0,1234,80
14,20,60,20,0,1234,80
15,40,60,20,0,1234,80
16,0,0,20,0,1234,80
17,80,0,20,0,1234,80
18,80,20,20,0,1234,80
19,80,40,20,0,1234,80
20,80,60,20,0,1234,80
21,0,80,20,0,1234,80
22,20,80,20,0,1234,80
23,40,80,20,0,1234,80
24,60,80,20,0,1234,80
25,80,80,20,0,1234,80
26,100,0,20,0,1234,80
27,100,20,20,0,1234,80
28,100,40,20,0,1234,80
29,100,60,20,0,1234,80
30,100,80,20,0,1234,80
31,0,100,20,0,1234,80
32,20,100,20,0,1234,80
33,40,100,20,0,1234,80
34,60,100,20,0,1234,80
35,80,100,20,0,1234,80
36,100,100,20,0,1234,80
37,120,0,20,0,1234,80
38,120,20,20,0,1234,80
39,120,40,20,0,1234,80
40,120,60,20,0,1234,80
41,120,80,20,0,1234,80
42,120,100,20,0,1234,80
43,0,120,20,0,1234,80
44,20,120,20,0,1234,80
45,40,120,20,0,1234,80
46,60,120,20,0,1234,80
47,80,120,20,0,1234,80
48,100,120,20,0,1234,80
49,120,120,20,0,1234,80
